Number of integers (N)?  Sum = 15

$0	0x00000000
$1	0x00000000
$2	0x0000000a
$3	0x00000000
$4	0x00002021
$5	0x00000005
$6	0x00000000
$7	0x00000000
$8	0x00000000
$9	0x00000000
$10	0x00000000
$11	0x00000000
$12	0x00000000
$13	0x00000000
$14	0x00000000
$15	0x00000000
$16	0x00000005
$17	0x00000005
$18	0x0000000f
$19	0x00000000
$20	0x00000000
$21	0x00000000
$22	0x00000000
$23	0x00000000
$24	0x00000000
$25	0x00000000
$26	0x00000000
$27	0x00000000
$28	0x00001800
$29	0x00003ffc
$30	0x00000000
$31	0x00000030
Mem[0x00000000]	0x24020004	0x20042000	0x0000000c	0x24020005	
Mem[0x00000010]	0x0000000c	0x00028021	0x24110000	0x24120000	
Mem[0x00000020]	0x22310001	0x00122021	0x00112821	0x0c00001a	
Mem[0x00000030]	0x00029021	0x12110001	0x08000008	0x24020004	
Mem[0x00000040]	0x2004201a	0x0000000c	0x24020001	0x00122021	
Mem[0x00000050]	0x0000000c	0x24020004	0x20042021	0x0000000c	
Mem[0x00000060]	0x2402000a	0x0000000c	0x23bdfffc	0xafb00000	
Mem[0x00000070]	0x00858020	0x00101021	0x8fb00000	0x23bd0004	
Mem[0x00000080]	0x03e00008	0x00000000	0x00000000	0x00000000	
Mem[0x00000090]	0x00000000	0x00000000	0x00000000	0x00000000	
Mem[0x000000a0]	0x00000000	0x00000000	0x00000000	0x00000000	
Mem[0x000000b0]	0x00000000	0x00000000	0x00000000	0x00000000	
Mem[0x000000c0]	0x00000000	0x00000000	0x00000000	0x00000000	
Mem[0x000000d0]	0x00000000	0x00000000	0x00000000	0x00000000	
Mem[0x000000e0]	0x00000000	0x00000000	0x00000000	0x00000000	
Mem[0x000000f0]	0x00000000	0x00000000	0x00000000	0x00000000	
Mem[0x00000100]	0x00000000	0x00000000	0x00000000	0x00000000	
Mem[0x00000110]	0x00000000	0x00000000	0x00000000	0x00000000	
Mem[0x00000120]	0x00000000	0x00000000	0x00000000	0x00000000	
Mem[0x00000130]	0x00000000	0x00000000	0x00000000	0x00000000	
Mem[0x00000140]	0x00000000	0x00000000	0x00000000	0x00000000	
Mem[0x00000150]	0x00000000	0x00000000	0x00000000	0x00000000	
Mem[0x00000160]	0x00000000	0x00000000	0x00000000	0x00000000	
Mem[0x00000170]	0x00000000	0x00000000	0x00000000	0x00000000	
Mem[0x00000180]	0x00000000	0x00000000	0x00000000	0x00000000	
Mem[0x00000190]	0x00000000	0x00000000	0x00000000	0x00000000	
Mem[0x000001a0]	0x00000000	0x00000000	0x00000000	0x00000000	
Mem[0x000001b0]	0x00000000	0x00000000	0x00000000	0x00000000	
Mem[0x000001c0]	0x00000000	0x00000000	0x00000000	0x00000000	
Mem[0x000001d0]	0x00000000	0x00000000	0x00000000	0x00000000	
Mem[0x000001e0]	0x00000000	0x00000000	0x00000000	0x00000000	
Mem[0x000001f0]	0x00000000	0x00000000	0x00000000	0x00000000	
Mem[0x00000200]	0x00000000	0x00000000	0x00000000	0x00000000	
Mem[0x00000210]	0x00000000	0x00000000	0x00000000	0x00000000	
Mem[0x00000220]	0x00000000	0x00000000	0x00000000	0x00000000	
Mem[0x00000230]	0x00000000	0x00000000	0x00000000	0x00000000	
Mem[0x00000240]	0x00000000	0x00000000	0x00000000	0x00000000	
Mem[0x00000250]	0x00000000	0x00000000	0x00000000	0x00000000	
Mem[0x00000260]	0x00000000	0x00000000	0x00000000	0x00000000	
Mem[0x00000270]	0x00000000	0x00000000	0x00000000	0x00000000	
Mem[0x00000280]	0x00000000	0x00000000	0x00000000	0x00000000	
Mem[0x00000290]	0x00000000	0x00000000	0x00000000	0x00000000	
Mem[0x000002a0]	0x00000000	0x00000000	0x00000000	0x00000000	
Mem[0x000002b0]	0x00000000	0x00000000	0x00000000	0x00000000	
Mem[0x000002c0]	0x00000000	0x00000000	0x00000000	0x00000000	
Mem[0x000002d0]	0x00000000	0x00000000	0x00000000	0x00000000	
Mem[0x000002e0]	0x00000000	0x00000000	0x00000000	0x00000000	
Mem[0x000002f0]	0x00000000	0x00000000	0x00000000	0x00000000	
Mem[0x00000300]	0x00000000	0x00000000	0x00000000	0x00000000	
Mem[0x00000310]	0x00000000	0x00000000	0x00000000	0x00000000	
Mem[0x00000320]	0x00000000	0x00000000	0x00000000	0x00000000	
Mem[0x00000330]	0x00000000	0x00000000	0x00000000	0x00000000	
Mem[0x00000340]	0x00000000	0x00000000	0x00000000	0x00000000	
Mem[0x00000350]	0x00000000	0x00000000	0x00000000	0x00000000	
Mem[0x00000360]	0x00000000	0x00000000	0x00000000	0x00000000	
Mem[0x00000370]	0x00000000	0x00000000	0x00000000	0x00000000	
Mem[0x00000380]	0x00000000	0x00000000	0x00000000	0x00000000	
Mem[0x00000390]	0x00000000	0x00000000	0x00000000	0x00000000	
Mem[0x000003a0]	0x00000000	0x00000000	0x00000000	0x00000000	
Mem[0x000003b0]	0x00000000	0x00000000	0x00000000	0x00000000	
Mem[0x000003c0]	0x00000000	0x00000000	0x00000000	0x00000000	
Mem[0x000003d0]	0x00000000	0x00000000	0x00000000	0x00000000	
Mem[0x000003e0]	0x00000000	0x00000000	0x00000000	0x00000000	
Mem[0x000003f0]	0x00000000	0x00000000	0x00000000	0x00000000	
Mem[0x00000400]	0x00000000	0x00000000	0x00000000	0x00000000	
Mem[0x00000410]	0x00000000	0x00000000	0x00000000	0x00000000	
Mem[0x00000420]	0x00000000	0x00000000	0x00000000	0x00000000	
Mem[0x00000430]	0x00000000	0x00000000	0x00000000	0x00000000	
Mem[0x00000440]	0x00000000	0x00000000	0x00000000	0x00000000	
Mem[0x00000450]	0x00000000	0x00000000	0x00000000	0x00000000	
Mem[0x00000460]	0x00000000	0x00000000	0x00000000	0x00000000	
Mem[0x00000470]	0x00000000	0x00000000	0x00000000	0x00000000	
Mem[0x00000480]	0x00000000	0x00000000	0x00000000	0x00000000	
Mem[0x00000490]	0x00000000	0x00000000	0x00000000	0x00000000	
Mem[0x000004a0]	0x00000000	0x00000000	0x00000000	0x00000000	
Mem[0x000004b0]	0x00000000	0x00000000	0x00000000	0x00000000	
Mem[0x000004c0]	0x00000000	0x00000000	0x00000000	0x00000000	
Mem[0x000004d0]	0x00000000	0x00000000	0x00000000	0x00000000	
Mem[0x000004e0]	0x00000000	0x00000000	0x00000000	0x00000000	
Mem[0x000004f0]	0x00000000	0x00000000	0x00000000	0x00000000	
Mem[0x00000500]	0x00000000	0x00000000	0x00000000	0x00000000	
Mem[0x00000510]	0x00000000	0x00000000	0x00000000	0x00000000	
Mem[0x00000520]	0x00000000	0x00000000	0x00000000	0x00000000	
Mem[0x00000530]	0x00000000	0x00000000	0x00000000	0x00000000	
Mem[0x00000540]	0x00000000	0x00000000	0x00000000	0x00000000	
Mem[0x00000550]	0x00000000	0x00000000	0x00000000	0x00000000	
Mem[0x00000560]	0x00000000	0x00000000	0x00000000	0x00000000	
Mem[0x00000570]	0x00000000	0x00000000	0x00000000	0x00000000	
Mem[0x00000580]	0x00000000	0x00000000	0x00000000	0x00000000	
Mem[0x00000590]	0x00000000	0x00000000	0x00000000	0x00000000	
Mem[0x000005a0]	0x00000000	0x00000000	0x00000000	0x00000000	
Mem[0x000005b0]	0x00000000	0x00000000	0x00000000	0x00000000	
Mem[0x000005c0]	0x00000000	0x00000000	0x00000000	0x00000000	
Mem[0x000005d0]	0x00000000	0x00000000	0x00000000	0x00000000	
Mem[0x000005e0]	0x00000000	0x00000000	0x00000000	0x00000000	
Mem[0x000005f0]	0x00000000	0x00000000	0x00000000	0x00000000	
Mem[0x00000600]	0x00000000	0x00000000	0x00000000	0x00000000	
Mem[0x00000610]	0x00000000	0x00000000	0x00000000	0x00000000	
Mem[0x00000620]	0x00000000	0x00000000	0x00000000	0x00000000	
Mem[0x00000630]	0x00000000	0x00000000	0x00000000	0x00000000	
Mem[0x00000640]	0x00000000	0x00000000	0x00000000	0x00000000	
Mem[0x00000650]	0x00000000	0x00000000	0x00000000	0x00000000	
Mem[0x00000660]	0x00000000	0x00000000	0x00000000	0x00000000	
Mem[0x00000670]	0x00000000	0x00000000	0x00000000	0x00000000	
Mem[0x00000680]	0x00000000	0x00000000	0x00000000	0x00000000	
Mem[0x00000690]	0x00000000	0x00000000	0x00000000	0x00000000	
Mem[0x000006a0]	0x00000000	0x00000000	0x00000000	0x00000000	
Mem[0x000006b0]	0x00000000	0x00000000	0x00000000	0x00000000	
Mem[0x000006c0]	0x00000000	0x00000000	0x00000000	0x00000000	
Mem[0x000006d0]	0x00000000	0x00000000	0x00000000	0x00000000	
Mem[0x000006e0]	0x00000000	0x00000000	0x00000000	0x00000000	
Mem[0x000006f0]	0x00000000	0x00000000	0x00000000	0x00000000	
Mem[0x00000700]	0x00000000	0x00000000	0x00000000	0x00000000	
Mem[0x00000710]	0x00000000	0x00000000	0x00000000	0x00000000	
Mem[0x00000720]	0x00000000	0x00000000	0x00000000	0x00000000	
Mem[0x00000730]	0x00000000	0x00000000	0x00000000	0x00000000	
Mem[0x00000740]	0x00000000	0x00000000	0x00000000	0x00000000	
Mem[0x00000750]	0x00000000	0x00000000	0x00000000	0x00000000	
Mem[0x00000760]	0x00000000	0x00000000	0x00000000	0x00000000	
Mem[0x00000770]	0x00000000	0x00000000	0x00000000	0x00000000	
Mem[0x00000780]	0x00000000	0x00000000	0x00000000	0x00000000	
Mem[0x00000790]	0x00000000	0x00000000	0x00000000	0x00000000	
Mem[0x000007a0]	0x00000000	0x00000000	0x00000000	0x00000000	
Mem[0x000007b0]	0x00000000	0x00000000	0x00000000	0x00000000	
Mem[0x000007c0]	0x00000000	0x00000000	0x00000000	0x00000000	
Mem[0x000007d0]	0x00000000	0x00000000	0x00000000	0x00000000	
Mem[0x000007e0]	0x00000000	0x00000000	0x00000000	0x00000000	
Mem[0x000007f0]	0x00000000	0x00000000	0x00000000	0x00000000	
Mem[0x00000800]	0x00000000	0x00000000	0x00000000	0x00000000	
Mem[0x00000810]	0x00000000	0x00000000	0x00000000	0x00000000	
Mem[0x00000820]	0x00000000	0x00000000	0x00000000	0x00000000	
Mem[0x00000830]	0x00000000	0x00000000	0x00000000	0x00000000	
Mem[0x00000840]	0x00000000	0x00000000	0x00000000	0x00000000	
Mem[0x00000850]	0x00000000	0x00000000	0x00000000	0x00000000	
Mem[0x00000860]	0x00000000	0x00000000	0x00000000	0x00000000	
Mem[0x00000870]	0x00000000	0x00000000	0x00000000	0x00000000	
Mem[0x00000880]	0x00000000	0x00000000	0x00000000	0x00000000	
Mem[0x00000890]	0x00000000	0x00000000	0x00000000	0x00000000	
Mem[0x000008a0]	0x00000000	0x00000000	0x00000000	0x00000000	
Mem[0x000008b0]	0x00000000	0x00000000	0x00000000	0x00000000	
Mem[0x000008c0]	0x00000000	0x00000000	0x00000000	0x00000000	
Mem[0x000008d0]	0x00000000	0x00000000	0x00000000	0x00000000	
Mem[0x000008e0]	0x00000000	0x00000000	0x00000000	0x00000000	
Mem[0x000008f0]	0x00000000	0x00000000	0x00000000	0x00000000	
Mem[0x00000900]	0x00000000	0x00000000	0x00000000	0x00000000	
Mem[0x00000910]	0x00000000	0x00000000	0x00000000	0x00000000	
Mem[0x00000920]	0x00000000	0x00000000	0x00000000	0x00000000	
Mem[0x00000930]	0x00000000	0x00000000	0x00000000	0x00000000	
Mem[0x00000940]	0x00000000	0x00000000	0x00000000	0x00000000	
Mem[0x00000950]	0x00000000	0x00000000	0x00000000	0x00000000	
Mem[0x00000960]	0x00000000	0x00000000	0x00000000	0x00000000	
Mem[0x00000970]	0x00000000	0x00000000	0x00000000	0x00000000	
Mem[0x00000980]	0x00000000	0x00000000	0x00000000	0x00000000	
Mem[0x00000990]	0x00000000	0x00000000	0x00000000	0x00000000	
Mem[0x000009a0]	0x00000000	0x00000000	0x00000000	0x00000000	
Mem[0x000009b0]	0x00000000	0x00000000	0x00000000	0x00000000	
Mem[0x000009c0]	0x00000000	0x00000000	0x00000000	0x00000000	
Mem[0x000009d0]	0x00000000	0x00000000	0x00000000	0x00000000	
Mem[0x000009e0]	0x00000000	0x00000000	0x00000000	0x00000000	
Mem[0x000009f0]	0x00000000	0x00000000	0x00000000	0x00000000	
Mem[0x00000a00]	0x00000000	0x00000000	0x00000000	0x00000000	
Mem[0x00000a10]	0x00000000	0x00000000	0x00000000	0x00000000	
Mem[0x00000a20]	0x00000000	0x00000000	0x00000000	0x00000000	
Mem[0x00000a30]	0x00000000	0x00000000	0x00000000	0x00000000	
Mem[0x00000a40]	0x00000000	0x00000000	0x00000000	0x00000000	
Mem[0x00000a50]	0x00000000	0x00000000	0x00000000	0x00000000	
Mem[0x00000a60]	0x00000000	0x00000000	0x00000000	0x00000000	
Mem[0x00000a70]	0x00000000	0x00000000	0x00000000	0x00000000	
Mem[0x00000a80]	0x00000000	0x00000000	0x00000000	0x00000000	
Mem[0x00000a90]	0x00000000	0x00000000	0x00000000	0x00000000	
Mem[0x00000aa0]	0x00000000	0x00000000	0x00000000	0x00000000	
Mem[0x00000ab0]	0x00000000	0x00000000	0x00000000	0x00000000	
Mem[0x00000ac0]	0x00000000	0x00000000	0x00000000	0x00000000	
Mem[0x00000ad0]	0x00000000	0x00000000	0x00000000	0x00000000	
Mem[0x00000ae0]	0x00000000	0x00000000	0x00000000	0x00000000	
Mem[0x00000af0]	0x00000000	0x00000000	0x00000000	0x00000000	
Mem[0x00000b00]	0x00000000	0x00000000	0x00000000	0x00000000	
Mem[0x00000b10]	0x00000000	0x00000000	0x00000000	0x00000000	
Mem[0x00000b20]	0x00000000	0x00000000	0x00000000	0x00000000	
Mem[0x00000b30]	0x00000000	0x00000000	0x00000000	0x00000000	
Mem[0x00000b40]	0x00000000	0x00000000	0x00000000	0x00000000	
Mem[0x00000b50]	0x00000000	0x00000000	0x00000000	0x00000000	
Mem[0x00000b60]	0x00000000	0x00000000	0x00000000	0x00000000	
Mem[0x00000b70]	0x00000000	0x00000000	0x00000000	0x00000000	
Mem[0x00000b80]	0x00000000	0x00000000	0x00000000	0x00000000	
Mem[0x00000b90]	0x00000000	0x00000000	0x00000000	0x00000000	
Mem[0x00000ba0]	0x00000000	0x00000000	0x00000000	0x00000000	
Mem[0x00000bb0]	0x00000000	0x00000000	0x00000000	0x00000000	
Mem[0x00000bc0]	0x00000000	0x00000000	0x00000000	0x00000000	
Mem[0x00000bd0]	0x00000000	0x00000000	0x00000000	0x00000000	
Mem[0x00000be0]	0x00000000	0x00000000	0x00000000	0x00000000	
Mem[0x00000bf0]	0x00000000	0x00000000	0x00000000	0x00000000	
Mem[0x00000c00]	0x00000000	0x00000000	0x00000000	0x00000000	
Mem[0x00000c10]	0x00000000	0x00000000	0x00000000	0x00000000	
Mem[0x00000c20]	0x00000000	0x00000000	0x00000000	0x00000000	
Mem[0x00000c30]	0x00000000	0x00000000	0x00000000	0x00000000	
Mem[0x00000c40]	0x00000000	0x00000000	0x00000000	0x00000000	
Mem[0x00000c50]	0x00000000	0x00000000	0x00000000	0x00000000	
Mem[0x00000c60]	0x00000000	0x00000000	0x00000000	0x00000000	
Mem[0x00000c70]	0x00000000	0x00000000	0x00000000	0x00000000	
Mem[0x00000c80]	0x00000000	0x00000000	0x00000000	0x00000000	
Mem[0x00000c90]	0x00000000	0x00000000	0x00000000	0x00000000	
Mem[0x00000ca0]	0x00000000	0x00000000	0x00000000	0x00000000	
Mem[0x00000cb0]	0x00000000	0x00000000	0x00000000	0x00000000	
Mem[0x00000cc0]	0x00000000	0x00000000	0x00000000	0x00000000	
Mem[0x00000cd0]	0x00000000	0x00000000	0x00000000	0x00000000	
Mem[0x00000ce0]	0x00000000	0x00000000	0x00000000	0x00000000	
Mem[0x00000cf0]	0x00000000	0x00000000	0x00000000	0x00000000	
Mem[0x00000d00]	0x00000000	0x00000000	0x00000000	0x00000000	
Mem[0x00000d10]	0x00000000	0x00000000	0x00000000	0x00000000	
Mem[0x00000d20]	0x00000000	0x00000000	0x00000000	0x00000000	
Mem[0x00000d30]	0x00000000	0x00000000	0x00000000	0x00000000	
Mem[0x00000d40]	0x00000000	0x00000000	0x00000000	0x00000000	
Mem[0x00000d50]	0x00000000	0x00000000	0x00000000	0x00000000	
Mem[0x00000d60]	0x00000000	0x00000000	0x00000000	0x00000000	
Mem[0x00000d70]	0x00000000	0x00000000	0x00000000	0x00000000	
Mem[0x00000d80]	0x00000000	0x00000000	0x00000000	0x00000000	
Mem[0x00000d90]	0x00000000	0x00000000	0x00000000	0x00000000	
Mem[0x00000da0]	0x00000000	0x00000000	0x00000000	0x00000000	
Mem[0x00000db0]	0x00000000	0x00000000	0x00000000	0x00000000	
Mem[0x00000dc0]	0x00000000	0x00000000	0x00000000	0x00000000	
Mem[0x00000dd0]	0x00000000	0x00000000	0x00000000	0x00000000	
Mem[0x00000de0]	0x00000000	0x00000000	0x00000000	0x00000000	
Mem[0x00000df0]	0x00000000	0x00000000	0x00000000	0x00000000	
Mem[0x00000e00]	0x00000000	0x00000000	0x00000000	0x00000000	
Mem[0x00000e10]	0x00000000	0x00000000	0x00000000	0x00000000	
Mem[0x00000e20]	0x00000000	0x00000000	0x00000000	0x00000000	
Mem[0x00000e30]	0x00000000	0x00000000	0x00000000	0x00000000	
Mem[0x00000e40]	0x00000000	0x00000000	0x00000000	0x00000000	
Mem[0x00000e50]	0x00000000	0x00000000	0x00000000	0x00000000	
Mem[0x00000e60]	0x00000000	0x00000000	0x00000000	0x00000000	
Mem[0x00000e70]	0x00000000	0x00000000	0x00000000	0x00000000	
Mem[0x00000e80]	0x00000000	0x00000000	0x00000000	0x00000000	
Mem[0x00000e90]	0x00000000	0x00000000	0x00000000	0x00000000	
Mem[0x00000ea0]	0x00000000	0x00000000	0x00000000	0x00000000	
Mem[0x00000eb0]	0x00000000	0x00000000	0x00000000	0x00000000	
Mem[0x00000ec0]	0x00000000	0x00000000	0x00000000	0x00000000	
Mem[0x00000ed0]	0x00000000	0x00000000	0x00000000	0x00000000	
Mem[0x00000ee0]	0x00000000	0x00000000	0x00000000	0x00000000	
Mem[0x00000ef0]	0x00000000	0x00000000	0x00000000	0x00000000	
Mem[0x00000f00]	0x00000000	0x00000000	0x00000000	0x00000000	
Mem[0x00000f10]	0x00000000	0x00000000	0x00000000	0x00000000	
Mem[0x00000f20]	0x00000000	0x00000000	0x00000000	0x00000000	
Mem[0x00000f30]	0x00000000	0x00000000	0x00000000	0x00000000	
Mem[0x00000f40]	0x00000000	0x00000000	0x00000000	0x00000000	
Mem[0x00000f50]	0x00000000	0x00000000	0x00000000	0x00000000	
Mem[0x00000f60]	0x00000000	0x00000000	0x00000000	0x00000000	
Mem[0x00000f70]	0x00000000	0x00000000	0x00000000	0x00000000	
Mem[0x00000f80]	0x00000000	0x00000000	0x00000000	0x00000000	
Mem[0x00000f90]	0x00000000	0x00000000	0x00000000	0x00000000	
Mem[0x00000fa0]	0x00000000	0x00000000	0x00000000	0x00000000	
Mem[0x00000fb0]	0x00000000	0x00000000	0x00000000	0x00000000	
Mem[0x00000fc0]	0x00000000	0x00000000	0x00000000	0x00000000	
Mem[0x00000fd0]	0x00000000	0x00000000	0x00000000	0x00000000	
Mem[0x00000fe0]	0x00000000	0x00000000	0x00000000	0x00000000	
Mem[0x00000ff0]	0x00000000	0x00000000	0x00000000	0x00000000	
Mem[0x00001000]	0x00000000	0x00000000	0x00000000	0x00000000	
Mem[0x00001010]	0x00000000	0x00000000	0x00000000	0x00000000	
Mem[0x00001020]	0x00000000	0x00000000	0x00000000	0x00000000	
Mem[0x00001030]	0x00000000	0x00000000	0x00000000	0x00000000	
Mem[0x00001040]	0x00000000	0x00000000	0x00000000	0x00000000	
Mem[0x00001050]	0x00000000	0x00000000	0x00000000	0x00000000	
Mem[0x00001060]	0x00000000	0x00000000	0x00000000	0x00000000	
Mem[0x00001070]	0x00000000	0x00000000	0x00000000	0x00000000	
Mem[0x00001080]	0x00000000	0x00000000	0x00000000	0x00000000	
Mem[0x00001090]	0x00000000	0x00000000	0x00000000	0x00000000	
Mem[0x000010a0]	0x00000000	0x00000000	0x00000000	0x00000000	
Mem[0x000010b0]	0x00000000	0x00000000	0x00000000	0x00000000	
Mem[0x000010c0]	0x00000000	0x00000000	0x00000000	0x00000000	
Mem[0x000010d0]	0x00000000	0x00000000	0x00000000	0x00000000	
Mem[0x000010e0]	0x00000000	0x00000000	0x00000000	0x00000000	
Mem[0x000010f0]	0x00000000	0x00000000	0x00000000	0x00000000	
Mem[0x00001100]	0x00000000	0x00000000	0x00000000	0x00000000	
Mem[0x00001110]	0x00000000	0x00000000	0x00000000	0x00000000	
Mem[0x00001120]	0x00000000	0x00000000	0x00000000	0x00000000	
Mem[0x00001130]	0x00000000	0x00000000	0x00000000	0x00000000	
Mem[0x00001140]	0x00000000	0x00000000	0x00000000	0x00000000	
Mem[0x00001150]	0x00000000	0x00000000	0x00000000	0x00000000	
Mem[0x00001160]	0x00000000	0x00000000	0x00000000	0x00000000	
Mem[0x00001170]	0x00000000	0x00000000	0x00000000	0x00000000	
Mem[0x00001180]	0x00000000	0x00000000	0x00000000	0x00000000	
Mem[0x00001190]	0x00000000	0x00000000	0x00000000	0x00000000	
Mem[0x000011a0]	0x00000000	0x00000000	0x00000000	0x00000000	
Mem[0x000011b0]	0x00000000	0x00000000	0x00000000	0x00000000	
Mem[0x000011c0]	0x00000000	0x00000000	0x00000000	0x00000000	
Mem[0x000011d0]	0x00000000	0x00000000	0x00000000	0x00000000	
Mem[0x000011e0]	0x00000000	0x00000000	0x00000000	0x00000000	
Mem[0x000011f0]	0x00000000	0x00000000	0x00000000	0x00000000	
Mem[0x00001200]	0x00000000	0x00000000	0x00000000	0x00000000	
Mem[0x00001210]	0x00000000	0x00000000	0x00000000	0x00000000	
Mem[0x00001220]	0x00000000	0x00000000	0x00000000	0x00000000	
Mem[0x00001230]	0x00000000	0x00000000	0x00000000	0x00000000	
Mem[0x00001240]	0x00000000	0x00000000	0x00000000	0x00000000	
Mem[0x00001250]	0x00000000	0x00000000	0x00000000	0x00000000	
Mem[0x00001260]	0x00000000	0x00000000	0x00000000	0x00000000	
Mem[0x00001270]	0x00000000	0x00000000	0x00000000	0x00000000	
Mem[0x00001280]	0x00000000	0x00000000	0x00000000	0x00000000	
Mem[0x00001290]	0x00000000	0x00000000	0x00000000	0x00000000	
Mem[0x000012a0]	0x00000000	0x00000000	0x00000000	0x00000000	
Mem[0x000012b0]	0x00000000	0x00000000	0x00000000	0x00000000	
Mem[0x000012c0]	0x00000000	0x00000000	0x00000000	0x00000000	
Mem[0x000012d0]	0x00000000	0x00000000	0x00000000	0x00000000	
Mem[0x000012e0]	0x00000000	0x00000000	0x00000000	0x00000000	
Mem[0x000012f0]	0x00000000	0x00000000	0x00000000	0x00000000	
Mem[0x00001300]	0x00000000	0x00000000	0x00000000	0x00000000	
Mem[0x00001310]	0x00000000	0x00000000	0x00000000	0x00000000	
Mem[0x00001320]	0x00000000	0x00000000	0x00000000	0x00000000	
Mem[0x00001330]	0x00000000	0x00000000	0x00000000	0x00000000	
Mem[0x00001340]	0x00000000	0x00000000	0x00000000	0x00000000	
Mem[0x00001350]	0x00000000	0x00000000	0x00000000	0x00000000	
Mem[0x00001360]	0x00000000	0x00000000	0x00000000	0x00000000	
Mem[0x00001370]	0x00000000	0x00000000	0x00000000	0x00000000	
Mem[0x00001380]	0x00000000	0x00000000	0x00000000	0x00000000	
Mem[0x00001390]	0x00000000	0x00000000	0x00000000	0x00000000	
Mem[0x000013a0]	0x00000000	0x00000000	0x00000000	0x00000000	
Mem[0x000013b0]	0x00000000	0x00000000	0x00000000	0x00000000	
Mem[0x000013c0]	0x00000000	0x00000000	0x00000000	0x00000000	
Mem[0x000013d0]	0x00000000	0x00000000	0x00000000	0x00000000	
Mem[0x000013e0]	0x00000000	0x00000000	0x00000000	0x00000000	
Mem[0x000013f0]	0x00000000	0x00000000	0x00000000	0x00000000	
Mem[0x00001400]	0x00000000	0x00000000	0x00000000	0x00000000	
Mem[0x00001410]	0x00000000	0x00000000	0x00000000	0x00000000	
Mem[0x00001420]	0x00000000	0x00000000	0x00000000	0x00000000	
Mem[0x00001430]	0x00000000	0x00000000	0x00000000	0x00000000	
Mem[0x00001440]	0x00000000	0x00000000	0x00000000	0x00000000	
Mem[0x00001450]	0x00000000	0x00000000	0x00000000	0x00000000	
Mem[0x00001460]	0x00000000	0x00000000	0x00000000	0x00000000	
Mem[0x00001470]	0x00000000	0x00000000	0x00000000	0x00000000	
Mem[0x00001480]	0x00000000	0x00000000	0x00000000	0x00000000	
Mem[0x00001490]	0x00000000	0x00000000	0x00000000	0x00000000	
Mem[0x000014a0]	0x00000000	0x00000000	0x00000000	0x00000000	
Mem[0x000014b0]	0x00000000	0x00000000	0x00000000	0x00000000	
Mem[0x000014c0]	0x00000000	0x00000000	0x00000000	0x00000000	
Mem[0x000014d0]	0x00000000	0x00000000	0x00000000	0x00000000	
Mem[0x000014e0]	0x00000000	0x00000000	0x00000000	0x00000000	
Mem[0x000014f0]	0x00000000	0x00000000	0x00000000	0x00000000	
Mem[0x00001500]	0x00000000	0x00000000	0x00000000	0x00000000	
Mem[0x00001510]	0x00000000	0x00000000	0x00000000	0x00000000	
Mem[0x00001520]	0x00000000	0x00000000	0x00000000	0x00000000	
Mem[0x00001530]	0x00000000	0x00000000	0x00000000	0x00000000	
Mem[0x00001540]	0x00000000	0x00000000	0x00000000	0x00000000	
Mem[0x00001550]	0x00000000	0x00000000	0x00000000	0x00000000	
Mem[0x00001560]	0x00000000	0x00000000	0x00000000	0x00000000	
Mem[0x00001570]	0x00000000	0x00000000	0x00000000	0x00000000	
Mem[0x00001580]	0x00000000	0x00000000	0x00000000	0x00000000	
Mem[0x00001590]	0x00000000	0x00000000	0x00000000	0x00000000	
Mem[0x000015a0]	0x00000000	0x00000000	0x00000000	0x00000000	
Mem[0x000015b0]	0x00000000	0x00000000	0x00000000	0x00000000	
Mem[0x000015c0]	0x00000000	0x00000000	0x00000000	0x00000000	
Mem[0x000015d0]	0x00000000	0x00000000	0x00000000	0x00000000	
Mem[0x000015e0]	0x00000000	0x00000000	0x00000000	0x00000000	
Mem[0x000015f0]	0x00000000	0x00000000	0x00000000	0x00000000	
Mem[0x00001600]	0x00000000	0x00000000	0x00000000	0x00000000	
Mem[0x00001610]	0x00000000	0x00000000	0x00000000	0x00000000	
Mem[0x00001620]	0x00000000	0x00000000	0x00000000	0x00000000	
Mem[0x00001630]	0x00000000	0x00000000	0x00000000	0x00000000	
Mem[0x00001640]	0x00000000	0x00000000	0x00000000	0x00000000	
Mem[0x00001650]	0x00000000	0x00000000	0x00000000	0x00000000	
Mem[0x00001660]	0x00000000	0x00000000	0x00000000	0x00000000	
Mem[0x00001670]	0x00000000	0x00000000	0x00000000	0x00000000	
Mem[0x00001680]	0x00000000	0x00000000	0x00000000	0x00000000	
Mem[0x00001690]	0x00000000	0x00000000	0x00000000	0x00000000	
Mem[0x000016a0]	0x00000000	0x00000000	0x00000000	0x00000000	
Mem[0x000016b0]	0x00000000	0x00000000	0x00000000	0x00000000	
Mem[0x000016c0]	0x00000000	0x00000000	0x00000000	0x00000000	
Mem[0x000016d0]	0x00000000	0x00000000	0x00000000	0x00000000	
Mem[0x000016e0]	0x00000000	0x00000000	0x00000000	0x00000000	
Mem[0x000016f0]	0x00000000	0x00000000	0x00000000	0x00000000	
Mem[0x00001700]	0x00000000	0x00000000	0x00000000	0x00000000	
Mem[0x00001710]	0x00000000	0x00000000	0x00000000	0x00000000	
Mem[0x00001720]	0x00000000	0x00000000	0x00000000	0x00000000	
Mem[0x00001730]	0x00000000	0x00000000	0x00000000	0x00000000	
Mem[0x00001740]	0x00000000	0x00000000	0x00000000	0x00000000	
Mem[0x00001750]	0x00000000	0x00000000	0x00000000	0x00000000	
Mem[0x00001760]	0x00000000	0x00000000	0x00000000	0x00000000	
Mem[0x00001770]	0x00000000	0x00000000	0x00000000	0x00000000	
Mem[0x00001780]	0x00000000	0x00000000	0x00000000	0x00000000	
Mem[0x00001790]	0x00000000	0x00000000	0x00000000	0x00000000	
Mem[0x000017a0]	0x00000000	0x00000000	0x00000000	0x00000000	
Mem[0x000017b0]	0x00000000	0x00000000	0x00000000	0x00000000	
Mem[0x000017c0]	0x00000000	0x00000000	0x00000000	0x00000000	
Mem[0x000017d0]	0x00000000	0x00000000	0x00000000	0x00000000	
Mem[0x000017e0]	0x00000000	0x00000000	0x00000000	0x00000000	
Mem[0x000017f0]	0x00000000	0x00000000	0x00000000	0x00000000	
Mem[0x00001800]	0x00000000	0x00000000	0x00000000	0x00000000	
Mem[0x00001810]	0x00000000	0x00000000	0x00000000	0x00000000	
Mem[0x00001820]	0x00000000	0x00000000	0x00000000	0x00000000	
Mem[0x00001830]	0x00000000	0x00000000	0x00000000	0x00000000	
Mem[0x00001840]	0x00000000	0x00000000	0x00000000	0x00000000	
Mem[0x00001850]	0x00000000	0x00000000	0x00000000	0x00000000	
Mem[0x00001860]	0x00000000	0x00000000	0x00000000	0x00000000	
Mem[0x00001870]	0x00000000	0x00000000	0x00000000	0x00000000	
Mem[0x00001880]	0x00000000	0x00000000	0x00000000	0x00000000	
Mem[0x00001890]	0x00000000	0x00000000	0x00000000	0x00000000	
Mem[0x000018a0]	0x00000000	0x00000000	0x00000000	0x00000000	
Mem[0x000018b0]	0x00000000	0x00000000	0x00000000	0x00000000	
Mem[0x000018c0]	0x00000000	0x00000000	0x00000000	0x00000000	
Mem[0x000018d0]	0x00000000	0x00000000	0x00000000	0x00000000	
Mem[0x000018e0]	0x00000000	0x00000000	0x00000000	0x00000000	
Mem[0x000018f0]	0x00000000	0x00000000	0x00000000	0x00000000	
Mem[0x00001900]	0x00000000	0x00000000	0x00000000	0x00000000	
Mem[0x00001910]	0x00000000	0x00000000	0x00000000	0x00000000	
Mem[0x00001920]	0x00000000	0x00000000	0x00000000	0x00000000	
Mem[0x00001930]	0x00000000	0x00000000	0x00000000	0x00000000	
Mem[0x00001940]	0x00000000	0x00000000	0x00000000	0x00000000	
Mem[0x00001950]	0x00000000	0x00000000	0x00000000	0x00000000	
Mem[0x00001960]	0x00000000	0x00000000	0x00000000	0x00000000	
Mem[0x00001970]	0x00000000	0x00000000	0x00000000	0x00000000	
Mem[0x00001980]	0x00000000	0x00000000	0x00000000	0x00000000	
Mem[0x00001990]	0x00000000	0x00000000	0x00000000	0x00000000	
Mem[0x000019a0]	0x00000000	0x00000000	0x00000000	0x00000000	
Mem[0x000019b0]	0x00000000	0x00000000	0x00000000	0x00000000	
Mem[0x000019c0]	0x00000000	0x00000000	0x00000000	0x00000000	
Mem[0x000019d0]	0x00000000	0x00000000	0x00000000	0x00000000	
Mem[0x000019e0]	0x00000000	0x00000000	0x00000000	0x00000000	
Mem[0x000019f0]	0x00000000	0x00000000	0x00000000	0x00000000	
Mem[0x00001a00]	0x00000000	0x00000000	0x00000000	0x00000000	
Mem[0x00001a10]	0x00000000	0x00000000	0x00000000	0x00000000	
Mem[0x00001a20]	0x00000000	0x00000000	0x00000000	0x00000000	
Mem[0x00001a30]	0x00000000	0x00000000	0x00000000	0x00000000	
Mem[0x00001a40]	0x00000000	0x00000000	0x00000000	0x00000000	
Mem[0x00001a50]	0x00000000	0x00000000	0x00000000	0x00000000	
Mem[0x00001a60]	0x00000000	0x00000000	0x00000000	0x00000000	
Mem[0x00001a70]	0x00000000	0x00000000	0x00000000	0x00000000	
Mem[0x00001a80]	0x00000000	0x00000000	0x00000000	0x00000000	
Mem[0x00001a90]	0x00000000	0x00000000	0x00000000	0x00000000	
Mem[0x00001aa0]	0x00000000	0x00000000	0x00000000	0x00000000	
Mem[0x00001ab0]	0x00000000	0x00000000	0x00000000	0x00000000	
Mem[0x00001ac0]	0x00000000	0x00000000	0x00000000	0x00000000	
Mem[0x00001ad0]	0x00000000	0x00000000	0x00000000	0x00000000	
Mem[0x00001ae0]	0x00000000	0x00000000	0x00000000	0x00000000	
Mem[0x00001af0]	0x00000000	0x00000000	0x00000000	0x00000000	
Mem[0x00001b00]	0x00000000	0x00000000	0x00000000	0x00000000	
Mem[0x00001b10]	0x00000000	0x00000000	0x00000000	0x00000000	
Mem[0x00001b20]	0x00000000	0x00000000	0x00000000	0x00000000	
Mem[0x00001b30]	0x00000000	0x00000000	0x00000000	0x00000000	
Mem[0x00001b40]	0x00000000	0x00000000	0x00000000	0x00000000	
Mem[0x00001b50]	0x00000000	0x00000000	0x00000000	0x00000000	
Mem[0x00001b60]	0x00000000	0x00000000	0x00000000	0x00000000	
Mem[0x00001b70]	0x00000000	0x00000000	0x00000000	0x00000000	
Mem[0x00001b80]	0x00000000	0x00000000	0x00000000	0x00000000	
Mem[0x00001b90]	0x00000000	0x00000000	0x00000000	0x00000000	
Mem[0x00001ba0]	0x00000000	0x00000000	0x00000000	0x00000000	
Mem[0x00001bb0]	0x00000000	0x00000000	0x00000000	0x00000000	
Mem[0x00001bc0]	0x00000000	0x00000000	0x00000000	0x00000000	
Mem[0x00001bd0]	0x00000000	0x00000000	0x00000000	0x00000000	
Mem[0x00001be0]	0x00000000	0x00000000	0x00000000	0x00000000	
Mem[0x00001bf0]	0x00000000	0x00000000	0x00000000	0x00000000	
Mem[0x00001c00]	0x00000000	0x00000000	0x00000000	0x00000000	
Mem[0x00001c10]	0x00000000	0x00000000	0x00000000	0x00000000	
Mem[0x00001c20]	0x00000000	0x00000000	0x00000000	0x00000000	
Mem[0x00001c30]	0x00000000	0x00000000	0x00000000	0x00000000	
Mem[0x00001c40]	0x00000000	0x00000000	0x00000000	0x00000000	
Mem[0x00001c50]	0x00000000	0x00000000	0x00000000	0x00000000	
Mem[0x00001c60]	0x00000000	0x00000000	0x00000000	0x00000000	
Mem[0x00001c70]	0x00000000	0x00000000	0x00000000	0x00000000	
Mem[0x00001c80]	0x00000000	0x00000000	0x00000000	0x00000000	
Mem[0x00001c90]	0x00000000	0x00000000	0x00000000	0x00000000	
Mem[0x00001ca0]	0x00000000	0x00000000	0x00000000	0x00000000	
Mem[0x00001cb0]	0x00000000	0x00000000	0x00000000	0x00000000	
Mem[0x00001cc0]	0x00000000	0x00000000	0x00000000	0x00000000	
Mem[0x00001cd0]	0x00000000	0x00000000	0x00000000	0x00000000	
Mem[0x00001ce0]	0x00000000	0x00000000	0x00000000	0x00000000	
Mem[0x00001cf0]	0x00000000	0x00000000	0x00000000	0x00000000	
Mem[0x00001d00]	0x00000000	0x00000000	0x00000000	0x00000000	
Mem[0x00001d10]	0x00000000	0x00000000	0x00000000	0x00000000	
Mem[0x00001d20]	0x00000000	0x00000000	0x00000000	0x00000000	
Mem[0x00001d30]	0x00000000	0x00000000	0x00000000	0x00000000	
Mem[0x00001d40]	0x00000000	0x00000000	0x00000000	0x00000000	
Mem[0x00001d50]	0x00000000	0x00000000	0x00000000	0x00000000	
Mem[0x00001d60]	0x00000000	0x00000000	0x00000000	0x00000000	
Mem[0x00001d70]	0x00000000	0x00000000	0x00000000	0x00000000	
Mem[0x00001d80]	0x00000000	0x00000000	0x00000000	0x00000000	
Mem[0x00001d90]	0x00000000	0x00000000	0x00000000	0x00000000	
Mem[0x00001da0]	0x00000000	0x00000000	0x00000000	0x00000000	
Mem[0x00001db0]	0x00000000	0x00000000	0x00000000	0x00000000	
Mem[0x00001dc0]	0x00000000	0x00000000	0x00000000	0x00000000	
Mem[0x00001dd0]	0x00000000	0x00000000	0x00000000	0x00000000	
Mem[0x00001de0]	0x00000000	0x00000000	0x00000000	0x00000000	
Mem[0x00001df0]	0x00000000	0x00000000	0x00000000	0x00000000	
Mem[0x00001e00]	0x00000000	0x00000000	0x00000000	0x00000000	
Mem[0x00001e10]	0x00000000	0x00000000	0x00000000	0x00000000	
Mem[0x00001e20]	0x00000000	0x00000000	0x00000000	0x00000000	
Mem[0x00001e30]	0x00000000	0x00000000	0x00000000	0x00000000	
Mem[0x00001e40]	0x00000000	0x00000000	0x00000000	0x00000000	
Mem[0x00001e50]	0x00000000	0x00000000	0x00000000	0x00000000	
Mem[0x00001e60]	0x00000000	0x00000000	0x00000000	0x00000000	
Mem[0x00001e70]	0x00000000	0x00000000	0x00000000	0x00000000	
Mem[0x00001e80]	0x00000000	0x00000000	0x00000000	0x00000000	
Mem[0x00001e90]	0x00000000	0x00000000	0x00000000	0x00000000	
Mem[0x00001ea0]	0x00000000	0x00000000	0x00000000	0x00000000	
Mem[0x00001eb0]	0x00000000	0x00000000	0x00000000	0x00000000	
Mem[0x00001ec0]	0x00000000	0x00000000	0x00000000	0x00000000	
Mem[0x00001ed0]	0x00000000	0x00000000	0x00000000	0x00000000	
Mem[0x00001ee0]	0x00000000	0x00000000	0x00000000	0x00000000	
Mem[0x00001ef0]	0x00000000	0x00000000	0x00000000	0x00000000	
Mem[0x00001f00]	0x00000000	0x00000000	0x00000000	0x00000000	
Mem[0x00001f10]	0x00000000	0x00000000	0x00000000	0x00000000	
Mem[0x00001f20]	0x00000000	0x00000000	0x00000000	0x00000000	
Mem[0x00001f30]	0x00000000	0x00000000	0x00000000	0x00000000	
Mem[0x00001f40]	0x00000000	0x00000000	0x00000000	0x00000000	
Mem[0x00001f50]	0x00000000	0x00000000	0x00000000	0x00000000	
Mem[0x00001f60]	0x00000000	0x00000000	0x00000000	0x00000000	
Mem[0x00001f70]	0x00000000	0x00000000	0x00000000	0x00000000	
Mem[0x00001f80]	0x00000000	0x00000000	0x00000000	0x00000000	
Mem[0x00001f90]	0x00000000	0x00000000	0x00000000	0x00000000	
Mem[0x00001fa0]	0x00000000	0x00000000	0x00000000	0x00000000	
Mem[0x00001fb0]	0x00000000	0x00000000	0x00000000	0x00000000	
Mem[0x00001fc0]	0x00000000	0x00000000	0x00000000	0x00000000	
Mem[0x00001fd0]	0x00000000	0x00000000	0x00000000	0x00000000	
Mem[0x00001fe0]	0x00000000	0x00000000	0x00000000	0x00000000	
Mem[0x00001ff0]	0x00000000	0x00000000	0x00000000	0x00000000	
Mem[0x00002000]	0x626d754e	0x6f207265	0x6e692066	0x65676574	
Mem[0x00002010]	0x28207372	0x203f294e	0x75530020	0x203d206d	
Mem[0x00002020]	0x00000a00	0x00000000	0x00000000	0x00000000	
Mem[0x00002030]	0x00000000	0x00000000	0x00000000	0x00000000	
Mem[0x00002040]	0x00000000	0x00000000	0x00000000	0x00000000	
Mem[0x00002050]	0x00000000	0x00000000	0x00000000	0x00000000	
Mem[0x00002060]	0x00000000	0x00000000	0x00000000	0x00000000	
Mem[0x00002070]	0x00000000	0x00000000	0x00000000	0x00000000	
Mem[0x00002080]	0x00000000	0x00000000	0x00000000	0x00000000	
Mem[0x00002090]	0x00000000	0x00000000	0x00000000	0x00000000	
Mem[0x000020a0]	0x00000000	0x00000000	0x00000000	0x00000000	
Mem[0x000020b0]	0x00000000	0x00000000	0x00000000	0x00000000	
Mem[0x000020c0]	0x00000000	0x00000000	0x00000000	0x00000000	
Mem[0x000020d0]	0x00000000	0x00000000	0x00000000	0x00000000	
Mem[0x000020e0]	0x00000000	0x00000000	0x00000000	0x00000000	
Mem[0x000020f0]	0x00000000	0x00000000	0x00000000	0x00000000	
Mem[0x00002100]	0x00000000	0x00000000	0x00000000	0x00000000	
Mem[0x00002110]	0x00000000	0x00000000	0x00000000	0x00000000	
Mem[0x00002120]	0x00000000	0x00000000	0x00000000	0x00000000	
Mem[0x00002130]	0x00000000	0x00000000	0x00000000	0x00000000	
Mem[0x00002140]	0x00000000	0x00000000	0x00000000	0x00000000	
Mem[0x00002150]	0x00000000	0x00000000	0x00000000	0x00000000	
Mem[0x00002160]	0x00000000	0x00000000	0x00000000	0x00000000	
Mem[0x00002170]	0x00000000	0x00000000	0x00000000	0x00000000	
Mem[0x00002180]	0x00000000	0x00000000	0x00000000	0x00000000	
Mem[0x00002190]	0x00000000	0x00000000	0x00000000	0x00000000	
Mem[0x000021a0]	0x00000000	0x00000000	0x00000000	0x00000000	
Mem[0x000021b0]	0x00000000	0x00000000	0x00000000	0x00000000	
Mem[0x000021c0]	0x00000000	0x00000000	0x00000000	0x00000000	
Mem[0x000021d0]	0x00000000	0x00000000	0x00000000	0x00000000	
Mem[0x000021e0]	0x00000000	0x00000000	0x00000000	0x00000000	
Mem[0x000021f0]	0x00000000	0x00000000	0x00000000	0x00000000	
Mem[0x00002200]	0x00000000	0x00000000	0x00000000	0x00000000	
Mem[0x00002210]	0x00000000	0x00000000	0x00000000	0x00000000	
Mem[0x00002220]	0x00000000	0x00000000	0x00000000	0x00000000	
Mem[0x00002230]	0x00000000	0x00000000	0x00000000	0x00000000	
Mem[0x00002240]	0x00000000	0x00000000	0x00000000	0x00000000	
Mem[0x00002250]	0x00000000	0x00000000	0x00000000	0x00000000	
Mem[0x00002260]	0x00000000	0x00000000	0x00000000	0x00000000	
Mem[0x00002270]	0x00000000	0x00000000	0x00000000	0x00000000	
Mem[0x00002280]	0x00000000	0x00000000	0x00000000	0x00000000	
Mem[0x00002290]	0x00000000	0x00000000	0x00000000	0x00000000	
Mem[0x000022a0]	0x00000000	0x00000000	0x00000000	0x00000000	
Mem[0x000022b0]	0x00000000	0x00000000	0x00000000	0x00000000	
Mem[0x000022c0]	0x00000000	0x00000000	0x00000000	0x00000000	
Mem[0x000022d0]	0x00000000	0x00000000	0x00000000	0x00000000	
Mem[0x000022e0]	0x00000000	0x00000000	0x00000000	0x00000000	
Mem[0x000022f0]	0x00000000	0x00000000	0x00000000	0x00000000	
Mem[0x00002300]	0x00000000	0x00000000	0x00000000	0x00000000	
Mem[0x00002310]	0x00000000	0x00000000	0x00000000	0x00000000	
Mem[0x00002320]	0x00000000	0x00000000	0x00000000	0x00000000	
Mem[0x00002330]	0x00000000	0x00000000	0x00000000	0x00000000	
Mem[0x00002340]	0x00000000	0x00000000	0x00000000	0x00000000	
Mem[0x00002350]	0x00000000	0x00000000	0x00000000	0x00000000	
Mem[0x00002360]	0x00000000	0x00000000	0x00000000	0x00000000	
Mem[0x00002370]	0x00000000	0x00000000	0x00000000	0x00000000	
Mem[0x00002380]	0x00000000	0x00000000	0x00000000	0x00000000	
Mem[0x00002390]	0x00000000	0x00000000	0x00000000	0x00000000	
Mem[0x000023a0]	0x00000000	0x00000000	0x00000000	0x00000000	
Mem[0x000023b0]	0x00000000	0x00000000	0x00000000	0x00000000	
Mem[0x000023c0]	0x00000000	0x00000000	0x00000000	0x00000000	
Mem[0x000023d0]	0x00000000	0x00000000	0x00000000	0x00000000	
Mem[0x000023e0]	0x00000000	0x00000000	0x00000000	0x00000000	
Mem[0x000023f0]	0x00000000	0x00000000	0x00000000	0x00000000	
Mem[0x00002400]	0x00000000	0x00000000	0x00000000	0x00000000	
Mem[0x00002410]	0x00000000	0x00000000	0x00000000	0x00000000	
Mem[0x00002420]	0x00000000	0x00000000	0x00000000	0x00000000	
Mem[0x00002430]	0x00000000	0x00000000	0x00000000	0x00000000	
Mem[0x00002440]	0x00000000	0x00000000	0x00000000	0x00000000	
Mem[0x00002450]	0x00000000	0x00000000	0x00000000	0x00000000	
Mem[0x00002460]	0x00000000	0x00000000	0x00000000	0x00000000	
Mem[0x00002470]	0x00000000	0x00000000	0x00000000	0x00000000	
Mem[0x00002480]	0x00000000	0x00000000	0x00000000	0x00000000	
Mem[0x00002490]	0x00000000	0x00000000	0x00000000	0x00000000	
Mem[0x000024a0]	0x00000000	0x00000000	0x00000000	0x00000000	
Mem[0x000024b0]	0x00000000	0x00000000	0x00000000	0x00000000	
Mem[0x000024c0]	0x00000000	0x00000000	0x00000000	0x00000000	
Mem[0x000024d0]	0x00000000	0x00000000	0x00000000	0x00000000	
Mem[0x000024e0]	0x00000000	0x00000000	0x00000000	0x00000000	
Mem[0x000024f0]	0x00000000	0x00000000	0x00000000	0x00000000	
Mem[0x00002500]	0x00000000	0x00000000	0x00000000	0x00000000	
Mem[0x00002510]	0x00000000	0x00000000	0x00000000	0x00000000	
Mem[0x00002520]	0x00000000	0x00000000	0x00000000	0x00000000	
Mem[0x00002530]	0x00000000	0x00000000	0x00000000	0x00000000	
Mem[0x00002540]	0x00000000	0x00000000	0x00000000	0x00000000	
Mem[0x00002550]	0x00000000	0x00000000	0x00000000	0x00000000	
Mem[0x00002560]	0x00000000	0x00000000	0x00000000	0x00000000	
Mem[0x00002570]	0x00000000	0x00000000	0x00000000	0x00000000	
Mem[0x00002580]	0x00000000	0x00000000	0x00000000	0x00000000	
Mem[0x00002590]	0x00000000	0x00000000	0x00000000	0x00000000	
Mem[0x000025a0]	0x00000000	0x00000000	0x00000000	0x00000000	
Mem[0x000025b0]	0x00000000	0x00000000	0x00000000	0x00000000	
Mem[0x000025c0]	0x00000000	0x00000000	0x00000000	0x00000000	
Mem[0x000025d0]	0x00000000	0x00000000	0x00000000	0x00000000	
Mem[0x000025e0]	0x00000000	0x00000000	0x00000000	0x00000000	
Mem[0x000025f0]	0x00000000	0x00000000	0x00000000	0x00000000	
Mem[0x00002600]	0x00000000	0x00000000	0x00000000	0x00000000	
Mem[0x00002610]	0x00000000	0x00000000	0x00000000	0x00000000	
Mem[0x00002620]	0x00000000	0x00000000	0x00000000	0x00000000	
Mem[0x00002630]	0x00000000	0x00000000	0x00000000	0x00000000	
Mem[0x00002640]	0x00000000	0x00000000	0x00000000	0x00000000	
Mem[0x00002650]	0x00000000	0x00000000	0x00000000	0x00000000	
Mem[0x00002660]	0x00000000	0x00000000	0x00000000	0x00000000	
Mem[0x00002670]	0x00000000	0x00000000	0x00000000	0x00000000	
Mem[0x00002680]	0x00000000	0x00000000	0x00000000	0x00000000	
Mem[0x00002690]	0x00000000	0x00000000	0x00000000	0x00000000	
Mem[0x000026a0]	0x00000000	0x00000000	0x00000000	0x00000000	
Mem[0x000026b0]	0x00000000	0x00000000	0x00000000	0x00000000	
Mem[0x000026c0]	0x00000000	0x00000000	0x00000000	0x00000000	
Mem[0x000026d0]	0x00000000	0x00000000	0x00000000	0x00000000	
Mem[0x000026e0]	0x00000000	0x00000000	0x00000000	0x00000000	
Mem[0x000026f0]	0x00000000	0x00000000	0x00000000	0x00000000	
Mem[0x00002700]	0x00000000	0x00000000	0x00000000	0x00000000	
Mem[0x00002710]	0x00000000	0x00000000	0x00000000	0x00000000	
Mem[0x00002720]	0x00000000	0x00000000	0x00000000	0x00000000	
Mem[0x00002730]	0x00000000	0x00000000	0x00000000	0x00000000	
Mem[0x00002740]	0x00000000	0x00000000	0x00000000	0x00000000	
Mem[0x00002750]	0x00000000	0x00000000	0x00000000	0x00000000	
Mem[0x00002760]	0x00000000	0x00000000	0x00000000	0x00000000	
Mem[0x00002770]	0x00000000	0x00000000	0x00000000	0x00000000	
Mem[0x00002780]	0x00000000	0x00000000	0x00000000	0x00000000	
Mem[0x00002790]	0x00000000	0x00000000	0x00000000	0x00000000	
Mem[0x000027a0]	0x00000000	0x00000000	0x00000000	0x00000000	
Mem[0x000027b0]	0x00000000	0x00000000	0x00000000	0x00000000	
Mem[0x000027c0]	0x00000000	0x00000000	0x00000000	0x00000000	
Mem[0x000027d0]	0x00000000	0x00000000	0x00000000	0x00000000	
Mem[0x000027e0]	0x00000000	0x00000000	0x00000000	0x00000000	
Mem[0x000027f0]	0x00000000	0x00000000	0x00000000	0x00000000	
Mem[0x00002800]	0x00000000	0x00000000	0x00000000	0x00000000	
Mem[0x00002810]	0x00000000	0x00000000	0x00000000	0x00000000	
Mem[0x00002820]	0x00000000	0x00000000	0x00000000	0x00000000	
Mem[0x00002830]	0x00000000	0x00000000	0x00000000	0x00000000	
Mem[0x00002840]	0x00000000	0x00000000	0x00000000	0x00000000	
Mem[0x00002850]	0x00000000	0x00000000	0x00000000	0x00000000	
Mem[0x00002860]	0x00000000	0x00000000	0x00000000	0x00000000	
Mem[0x00002870]	0x00000000	0x00000000	0x00000000	0x00000000	
Mem[0x00002880]	0x00000000	0x00000000	0x00000000	0x00000000	
Mem[0x00002890]	0x00000000	0x00000000	0x00000000	0x00000000	
Mem[0x000028a0]	0x00000000	0x00000000	0x00000000	0x00000000	
Mem[0x000028b0]	0x00000000	0x00000000	0x00000000	0x00000000	
Mem[0x000028c0]	0x00000000	0x00000000	0x00000000	0x00000000	
Mem[0x000028d0]	0x00000000	0x00000000	0x00000000	0x00000000	
Mem[0x000028e0]	0x00000000	0x00000000	0x00000000	0x00000000	
Mem[0x000028f0]	0x00000000	0x00000000	0x00000000	0x00000000	
Mem[0x00002900]	0x00000000	0x00000000	0x00000000	0x00000000	
Mem[0x00002910]	0x00000000	0x00000000	0x00000000	0x00000000	
Mem[0x00002920]	0x00000000	0x00000000	0x00000000	0x00000000	
Mem[0x00002930]	0x00000000	0x00000000	0x00000000	0x00000000	
Mem[0x00002940]	0x00000000	0x00000000	0x00000000	0x00000000	
Mem[0x00002950]	0x00000000	0x00000000	0x00000000	0x00000000	
Mem[0x00002960]	0x00000000	0x00000000	0x00000000	0x00000000	
Mem[0x00002970]	0x00000000	0x00000000	0x00000000	0x00000000	
Mem[0x00002980]	0x00000000	0x00000000	0x00000000	0x00000000	
Mem[0x00002990]	0x00000000	0x00000000	0x00000000	0x00000000	
Mem[0x000029a0]	0x00000000	0x00000000	0x00000000	0x00000000	
Mem[0x000029b0]	0x00000000	0x00000000	0x00000000	0x00000000	
Mem[0x000029c0]	0x00000000	0x00000000	0x00000000	0x00000000	
Mem[0x000029d0]	0x00000000	0x00000000	0x00000000	0x00000000	
Mem[0x000029e0]	0x00000000	0x00000000	0x00000000	0x00000000	
Mem[0x000029f0]	0x00000000	0x00000000	0x00000000	0x00000000	
Mem[0x00002a00]	0x00000000	0x00000000	0x00000000	0x00000000	
Mem[0x00002a10]	0x00000000	0x00000000	0x00000000	0x00000000	
Mem[0x00002a20]	0x00000000	0x00000000	0x00000000	0x00000000	
Mem[0x00002a30]	0x00000000	0x00000000	0x00000000	0x00000000	
Mem[0x00002a40]	0x00000000	0x00000000	0x00000000	0x00000000	
Mem[0x00002a50]	0x00000000	0x00000000	0x00000000	0x00000000	
Mem[0x00002a60]	0x00000000	0x00000000	0x00000000	0x00000000	
Mem[0x00002a70]	0x00000000	0x00000000	0x00000000	0x00000000	
Mem[0x00002a80]	0x00000000	0x00000000	0x00000000	0x00000000	
Mem[0x00002a90]	0x00000000	0x00000000	0x00000000	0x00000000	
Mem[0x00002aa0]	0x00000000	0x00000000	0x00000000	0x00000000	
Mem[0x00002ab0]	0x00000000	0x00000000	0x00000000	0x00000000	
Mem[0x00002ac0]	0x00000000	0x00000000	0x00000000	0x00000000	
Mem[0x00002ad0]	0x00000000	0x00000000	0x00000000	0x00000000	
Mem[0x00002ae0]	0x00000000	0x00000000	0x00000000	0x00000000	
Mem[0x00002af0]	0x00000000	0x00000000	0x00000000	0x00000000	
Mem[0x00002b00]	0x00000000	0x00000000	0x00000000	0x00000000	
Mem[0x00002b10]	0x00000000	0x00000000	0x00000000	0x00000000	
Mem[0x00002b20]	0x00000000	0x00000000	0x00000000	0x00000000	
Mem[0x00002b30]	0x00000000	0x00000000	0x00000000	0x00000000	
Mem[0x00002b40]	0x00000000	0x00000000	0x00000000	0x00000000	
Mem[0x00002b50]	0x00000000	0x00000000	0x00000000	0x00000000	
Mem[0x00002b60]	0x00000000	0x00000000	0x00000000	0x00000000	
Mem[0x00002b70]	0x00000000	0x00000000	0x00000000	0x00000000	
Mem[0x00002b80]	0x00000000	0x00000000	0x00000000	0x00000000	
Mem[0x00002b90]	0x00000000	0x00000000	0x00000000	0x00000000	
Mem[0x00002ba0]	0x00000000	0x00000000	0x00000000	0x00000000	
Mem[0x00002bb0]	0x00000000	0x00000000	0x00000000	0x00000000	
Mem[0x00002bc0]	0x00000000	0x00000000	0x00000000	0x00000000	
Mem[0x00002bd0]	0x00000000	0x00000000	0x00000000	0x00000000	
Mem[0x00002be0]	0x00000000	0x00000000	0x00000000	0x00000000	
Mem[0x00002bf0]	0x00000000	0x00000000	0x00000000	0x00000000	
Mem[0x00002c00]	0x00000000	0x00000000	0x00000000	0x00000000	
Mem[0x00002c10]	0x00000000	0x00000000	0x00000000	0x00000000	
Mem[0x00002c20]	0x00000000	0x00000000	0x00000000	0x00000000	
Mem[0x00002c30]	0x00000000	0x00000000	0x00000000	0x00000000	
Mem[0x00002c40]	0x00000000	0x00000000	0x00000000	0x00000000	
Mem[0x00002c50]	0x00000000	0x00000000	0x00000000	0x00000000	
Mem[0x00002c60]	0x00000000	0x00000000	0x00000000	0x00000000	
Mem[0x00002c70]	0x00000000	0x00000000	0x00000000	0x00000000	
Mem[0x00002c80]	0x00000000	0x00000000	0x00000000	0x00000000	
Mem[0x00002c90]	0x00000000	0x00000000	0x00000000	0x00000000	
Mem[0x00002ca0]	0x00000000	0x00000000	0x00000000	0x00000000	
Mem[0x00002cb0]	0x00000000	0x00000000	0x00000000	0x00000000	
Mem[0x00002cc0]	0x00000000	0x00000000	0x00000000	0x00000000	
Mem[0x00002cd0]	0x00000000	0x00000000	0x00000000	0x00000000	
Mem[0x00002ce0]	0x00000000	0x00000000	0x00000000	0x00000000	
Mem[0x00002cf0]	0x00000000	0x00000000	0x00000000	0x00000000	
Mem[0x00002d00]	0x00000000	0x00000000	0x00000000	0x00000000	
Mem[0x00002d10]	0x00000000	0x00000000	0x00000000	0x00000000	
Mem[0x00002d20]	0x00000000	0x00000000	0x00000000	0x00000000	
Mem[0x00002d30]	0x00000000	0x00000000	0x00000000	0x00000000	
Mem[0x00002d40]	0x00000000	0x00000000	0x00000000	0x00000000	
Mem[0x00002d50]	0x00000000	0x00000000	0x00000000	0x00000000	
Mem[0x00002d60]	0x00000000	0x00000000	0x00000000	0x00000000	
Mem[0x00002d70]	0x00000000	0x00000000	0x00000000	0x00000000	
Mem[0x00002d80]	0x00000000	0x00000000	0x00000000	0x00000000	
Mem[0x00002d90]	0x00000000	0x00000000	0x00000000	0x00000000	
Mem[0x00002da0]	0x00000000	0x00000000	0x00000000	0x00000000	
Mem[0x00002db0]	0x00000000	0x00000000	0x00000000	0x00000000	
Mem[0x00002dc0]	0x00000000	0x00000000	0x00000000	0x00000000	
Mem[0x00002dd0]	0x00000000	0x00000000	0x00000000	0x00000000	
Mem[0x00002de0]	0x00000000	0x00000000	0x00000000	0x00000000	
Mem[0x00002df0]	0x00000000	0x00000000	0x00000000	0x00000000	
Mem[0x00002e00]	0x00000000	0x00000000	0x00000000	0x00000000	
Mem[0x00002e10]	0x00000000	0x00000000	0x00000000	0x00000000	
Mem[0x00002e20]	0x00000000	0x00000000	0x00000000	0x00000000	
Mem[0x00002e30]	0x00000000	0x00000000	0x00000000	0x00000000	
Mem[0x00002e40]	0x00000000	0x00000000	0x00000000	0x00000000	
Mem[0x00002e50]	0x00000000	0x00000000	0x00000000	0x00000000	
Mem[0x00002e60]	0x00000000	0x00000000	0x00000000	0x00000000	
Mem[0x00002e70]	0x00000000	0x00000000	0x00000000	0x00000000	
Mem[0x00002e80]	0x00000000	0x00000000	0x00000000	0x00000000	
Mem[0x00002e90]	0x00000000	0x00000000	0x00000000	0x00000000	
Mem[0x00002ea0]	0x00000000	0x00000000	0x00000000	0x00000000	
Mem[0x00002eb0]	0x00000000	0x00000000	0x00000000	0x00000000	
Mem[0x00002ec0]	0x00000000	0x00000000	0x00000000	0x00000000	
Mem[0x00002ed0]	0x00000000	0x00000000	0x00000000	0x00000000	
Mem[0x00002ee0]	0x00000000	0x00000000	0x00000000	0x00000000	
Mem[0x00002ef0]	0x00000000	0x00000000	0x00000000	0x00000000	
Mem[0x00002f00]	0x00000000	0x00000000	0x00000000	0x00000000	
Mem[0x00002f10]	0x00000000	0x00000000	0x00000000	0x00000000	
Mem[0x00002f20]	0x00000000	0x00000000	0x00000000	0x00000000	
Mem[0x00002f30]	0x00000000	0x00000000	0x00000000	0x00000000	
Mem[0x00002f40]	0x00000000	0x00000000	0x00000000	0x00000000	
Mem[0x00002f50]	0x00000000	0x00000000	0x00000000	0x00000000	
Mem[0x00002f60]	0x00000000	0x00000000	0x00000000	0x00000000	
Mem[0x00002f70]	0x00000000	0x00000000	0x00000000	0x00000000	
Mem[0x00002f80]	0x00000000	0x00000000	0x00000000	0x00000000	
Mem[0x00002f90]	0x00000000	0x00000000	0x00000000	0x00000000	
Mem[0x00002fa0]	0x00000000	0x00000000	0x00000000	0x00000000	
Mem[0x00002fb0]	0x00000000	0x00000000	0x00000000	0x00000000	
Mem[0x00002fc0]	0x00000000	0x00000000	0x00000000	0x00000000	
Mem[0x00002fd0]	0x00000000	0x00000000	0x00000000	0x00000000	
Mem[0x00002fe0]	0x00000000	0x00000000	0x00000000	0x00000000	
Mem[0x00002ff0]	0x00000000	0x00000000	0x00000000	0x00000000	
Mem[0x00003000]	0x00000000	0x00000000	0x00000000	0x00000000	
Mem[0x00003010]	0x00000000	0x00000000	0x00000000	0x00000000	
Mem[0x00003020]	0x00000000	0x00000000	0x00000000	0x00000000	
Mem[0x00003030]	0x00000000	0x00000000	0x00000000	0x00000000	
Mem[0x00003040]	0x00000000	0x00000000	0x00000000	0x00000000	
Mem[0x00003050]	0x00000000	0x00000000	0x00000000	0x00000000	
Mem[0x00003060]	0x00000000	0x00000000	0x00000000	0x00000000	
Mem[0x00003070]	0x00000000	0x00000000	0x00000000	0x00000000	
Mem[0x00003080]	0x00000000	0x00000000	0x00000000	0x00000000	
Mem[0x00003090]	0x00000000	0x00000000	0x00000000	0x00000000	
Mem[0x000030a0]	0x00000000	0x00000000	0x00000000	0x00000000	
Mem[0x000030b0]	0x00000000	0x00000000	0x00000000	0x00000000	
Mem[0x000030c0]	0x00000000	0x00000000	0x00000000	0x00000000	
Mem[0x000030d0]	0x00000000	0x00000000	0x00000000	0x00000000	
Mem[0x000030e0]	0x00000000	0x00000000	0x00000000	0x00000000	
Mem[0x000030f0]	0x00000000	0x00000000	0x00000000	0x00000000	
Mem[0x00003100]	0x00000000	0x00000000	0x00000000	0x00000000	
Mem[0x00003110]	0x00000000	0x00000000	0x00000000	0x00000000	
Mem[0x00003120]	0x00000000	0x00000000	0x00000000	0x00000000	
Mem[0x00003130]	0x00000000	0x00000000	0x00000000	0x00000000	
Mem[0x00003140]	0x00000000	0x00000000	0x00000000	0x00000000	
Mem[0x00003150]	0x00000000	0x00000000	0x00000000	0x00000000	
Mem[0x00003160]	0x00000000	0x00000000	0x00000000	0x00000000	
Mem[0x00003170]	0x00000000	0x00000000	0x00000000	0x00000000	
Mem[0x00003180]	0x00000000	0x00000000	0x00000000	0x00000000	
Mem[0x00003190]	0x00000000	0x00000000	0x00000000	0x00000000	
Mem[0x000031a0]	0x00000000	0x00000000	0x00000000	0x00000000	
Mem[0x000031b0]	0x00000000	0x00000000	0x00000000	0x00000000	
Mem[0x000031c0]	0x00000000	0x00000000	0x00000000	0x00000000	
Mem[0x000031d0]	0x00000000	0x00000000	0x00000000	0x00000000	
Mem[0x000031e0]	0x00000000	0x00000000	0x00000000	0x00000000	
Mem[0x000031f0]	0x00000000	0x00000000	0x00000000	0x00000000	
Mem[0x00003200]	0x00000000	0x00000000	0x00000000	0x00000000	
Mem[0x00003210]	0x00000000	0x00000000	0x00000000	0x00000000	
Mem[0x00003220]	0x00000000	0x00000000	0x00000000	0x00000000	
Mem[0x00003230]	0x00000000	0x00000000	0x00000000	0x00000000	
Mem[0x00003240]	0x00000000	0x00000000	0x00000000	0x00000000	
Mem[0x00003250]	0x00000000	0x00000000	0x00000000	0x00000000	
Mem[0x00003260]	0x00000000	0x00000000	0x00000000	0x00000000	
Mem[0x00003270]	0x00000000	0x00000000	0x00000000	0x00000000	
Mem[0x00003280]	0x00000000	0x00000000	0x00000000	0x00000000	
Mem[0x00003290]	0x00000000	0x00000000	0x00000000	0x00000000	
Mem[0x000032a0]	0x00000000	0x00000000	0x00000000	0x00000000	
Mem[0x000032b0]	0x00000000	0x00000000	0x00000000	0x00000000	
Mem[0x000032c0]	0x00000000	0x00000000	0x00000000	0x00000000	
Mem[0x000032d0]	0x00000000	0x00000000	0x00000000	0x00000000	
Mem[0x000032e0]	0x00000000	0x00000000	0x00000000	0x00000000	
Mem[0x000032f0]	0x00000000	0x00000000	0x00000000	0x00000000	
Mem[0x00003300]	0x00000000	0x00000000	0x00000000	0x00000000	
Mem[0x00003310]	0x00000000	0x00000000	0x00000000	0x00000000	
Mem[0x00003320]	0x00000000	0x00000000	0x00000000	0x00000000	
Mem[0x00003330]	0x00000000	0x00000000	0x00000000	0x00000000	
Mem[0x00003340]	0x00000000	0x00000000	0x00000000	0x00000000	
Mem[0x00003350]	0x00000000	0x00000000	0x00000000	0x00000000	
Mem[0x00003360]	0x00000000	0x00000000	0x00000000	0x00000000	
Mem[0x00003370]	0x00000000	0x00000000	0x00000000	0x00000000	
Mem[0x00003380]	0x00000000	0x00000000	0x00000000	0x00000000	
Mem[0x00003390]	0x00000000	0x00000000	0x00000000	0x00000000	
Mem[0x000033a0]	0x00000000	0x00000000	0x00000000	0x00000000	
Mem[0x000033b0]	0x00000000	0x00000000	0x00000000	0x00000000	
Mem[0x000033c0]	0x00000000	0x00000000	0x00000000	0x00000000	
Mem[0x000033d0]	0x00000000	0x00000000	0x00000000	0x00000000	
Mem[0x000033e0]	0x00000000	0x00000000	0x00000000	0x00000000	
Mem[0x000033f0]	0x00000000	0x00000000	0x00000000	0x00000000	
Mem[0x00003400]	0x00000000	0x00000000	0x00000000	0x00000000	
Mem[0x00003410]	0x00000000	0x00000000	0x00000000	0x00000000	
Mem[0x00003420]	0x00000000	0x00000000	0x00000000	0x00000000	
Mem[0x00003430]	0x00000000	0x00000000	0x00000000	0x00000000	
Mem[0x00003440]	0x00000000	0x00000000	0x00000000	0x00000000	
Mem[0x00003450]	0x00000000	0x00000000	0x00000000	0x00000000	
Mem[0x00003460]	0x00000000	0x00000000	0x00000000	0x00000000	
Mem[0x00003470]	0x00000000	0x00000000	0x00000000	0x00000000	
Mem[0x00003480]	0x00000000	0x00000000	0x00000000	0x00000000	
Mem[0x00003490]	0x00000000	0x00000000	0x00000000	0x00000000	
Mem[0x000034a0]	0x00000000	0x00000000	0x00000000	0x00000000	
Mem[0x000034b0]	0x00000000	0x00000000	0x00000000	0x00000000	
Mem[0x000034c0]	0x00000000	0x00000000	0x00000000	0x00000000	
Mem[0x000034d0]	0x00000000	0x00000000	0x00000000	0x00000000	
Mem[0x000034e0]	0x00000000	0x00000000	0x00000000	0x00000000	
Mem[0x000034f0]	0x00000000	0x00000000	0x00000000	0x00000000	
Mem[0x00003500]	0x00000000	0x00000000	0x00000000	0x00000000	
Mem[0x00003510]	0x00000000	0x00000000	0x00000000	0x00000000	
Mem[0x00003520]	0x00000000	0x00000000	0x00000000	0x00000000	
Mem[0x00003530]	0x00000000	0x00000000	0x00000000	0x00000000	
Mem[0x00003540]	0x00000000	0x00000000	0x00000000	0x00000000	
Mem[0x00003550]	0x00000000	0x00000000	0x00000000	0x00000000	
Mem[0x00003560]	0x00000000	0x00000000	0x00000000	0x00000000	
Mem[0x00003570]	0x00000000	0x00000000	0x00000000	0x00000000	
Mem[0x00003580]	0x00000000	0x00000000	0x00000000	0x00000000	
Mem[0x00003590]	0x00000000	0x00000000	0x00000000	0x00000000	
Mem[0x000035a0]	0x00000000	0x00000000	0x00000000	0x00000000	
Mem[0x000035b0]	0x00000000	0x00000000	0x00000000	0x00000000	
Mem[0x000035c0]	0x00000000	0x00000000	0x00000000	0x00000000	
Mem[0x000035d0]	0x00000000	0x00000000	0x00000000	0x00000000	
Mem[0x000035e0]	0x00000000	0x00000000	0x00000000	0x00000000	
Mem[0x000035f0]	0x00000000	0x00000000	0x00000000	0x00000000	
Mem[0x00003600]	0x00000000	0x00000000	0x00000000	0x00000000	
Mem[0x00003610]	0x00000000	0x00000000	0x00000000	0x00000000	
Mem[0x00003620]	0x00000000	0x00000000	0x00000000	0x00000000	
Mem[0x00003630]	0x00000000	0x00000000	0x00000000	0x00000000	
Mem[0x00003640]	0x00000000	0x00000000	0x00000000	0x00000000	
Mem[0x00003650]	0x00000000	0x00000000	0x00000000	0x00000000	
Mem[0x00003660]	0x00000000	0x00000000	0x00000000	0x00000000	
Mem[0x00003670]	0x00000000	0x00000000	0x00000000	0x00000000	
Mem[0x00003680]	0x00000000	0x00000000	0x00000000	0x00000000	
Mem[0x00003690]	0x00000000	0x00000000	0x00000000	0x00000000	
Mem[0x000036a0]	0x00000000	0x00000000	0x00000000	0x00000000	
Mem[0x000036b0]	0x00000000	0x00000000	0x00000000	0x00000000	
Mem[0x000036c0]	0x00000000	0x00000000	0x00000000	0x00000000	
Mem[0x000036d0]	0x00000000	0x00000000	0x00000000	0x00000000	
Mem[0x000036e0]	0x00000000	0x00000000	0x00000000	0x00000000	
Mem[0x000036f0]	0x00000000	0x00000000	0x00000000	0x00000000	
Mem[0x00003700]	0x00000000	0x00000000	0x00000000	0x00000000	
Mem[0x00003710]	0x00000000	0x00000000	0x00000000	0x00000000	
Mem[0x00003720]	0x00000000	0x00000000	0x00000000	0x00000000	
Mem[0x00003730]	0x00000000	0x00000000	0x00000000	0x00000000	
Mem[0x00003740]	0x00000000	0x00000000	0x00000000	0x00000000	
Mem[0x00003750]	0x00000000	0x00000000	0x00000000	0x00000000	
Mem[0x00003760]	0x00000000	0x00000000	0x00000000	0x00000000	
Mem[0x00003770]	0x00000000	0x00000000	0x00000000	0x00000000	
Mem[0x00003780]	0x00000000	0x00000000	0x00000000	0x00000000	
Mem[0x00003790]	0x00000000	0x00000000	0x00000000	0x00000000	
Mem[0x000037a0]	0x00000000	0x00000000	0x00000000	0x00000000	
Mem[0x000037b0]	0x00000000	0x00000000	0x00000000	0x00000000	
Mem[0x000037c0]	0x00000000	0x00000000	0x00000000	0x00000000	
Mem[0x000037d0]	0x00000000	0x00000000	0x00000000	0x00000000	
Mem[0x000037e0]	0x00000000	0x00000000	0x00000000	0x00000000	
Mem[0x000037f0]	0x00000000	0x00000000	0x00000000	0x00000000	
Mem[0x00003800]	0x00000000	0x00000000	0x00000000	0x00000000	
Mem[0x00003810]	0x00000000	0x00000000	0x00000000	0x00000000	
Mem[0x00003820]	0x00000000	0x00000000	0x00000000	0x00000000	
Mem[0x00003830]	0x00000000	0x00000000	0x00000000	0x00000000	
Mem[0x00003840]	0x00000000	0x00000000	0x00000000	0x00000000	
Mem[0x00003850]	0x00000000	0x00000000	0x00000000	0x00000000	
Mem[0x00003860]	0x00000000	0x00000000	0x00000000	0x00000000	
Mem[0x00003870]	0x00000000	0x00000000	0x00000000	0x00000000	
Mem[0x00003880]	0x00000000	0x00000000	0x00000000	0x00000000	
Mem[0x00003890]	0x00000000	0x00000000	0x00000000	0x00000000	
Mem[0x000038a0]	0x00000000	0x00000000	0x00000000	0x00000000	
Mem[0x000038b0]	0x00000000	0x00000000	0x00000000	0x00000000	
Mem[0x000038c0]	0x00000000	0x00000000	0x00000000	0x00000000	
Mem[0x000038d0]	0x00000000	0x00000000	0x00000000	0x00000000	
Mem[0x000038e0]	0x00000000	0x00000000	0x00000000	0x00000000	
Mem[0x000038f0]	0x00000000	0x00000000	0x00000000	0x00000000	
Mem[0x00003900]	0x00000000	0x00000000	0x00000000	0x00000000	
Mem[0x00003910]	0x00000000	0x00000000	0x00000000	0x00000000	
Mem[0x00003920]	0x00000000	0x00000000	0x00000000	0x00000000	
Mem[0x00003930]	0x00000000	0x00000000	0x00000000	0x00000000	
Mem[0x00003940]	0x00000000	0x00000000	0x00000000	0x00000000	
Mem[0x00003950]	0x00000000	0x00000000	0x00000000	0x00000000	
Mem[0x00003960]	0x00000000	0x00000000	0x00000000	0x00000000	
Mem[0x00003970]	0x00000000	0x00000000	0x00000000	0x00000000	
Mem[0x00003980]	0x00000000	0x00000000	0x00000000	0x00000000	
Mem[0x00003990]	0x00000000	0x00000000	0x00000000	0x00000000	
Mem[0x000039a0]	0x00000000	0x00000000	0x00000000	0x00000000	
Mem[0x000039b0]	0x00000000	0x00000000	0x00000000	0x00000000	
Mem[0x000039c0]	0x00000000	0x00000000	0x00000000	0x00000000	
Mem[0x000039d0]	0x00000000	0x00000000	0x00000000	0x00000000	
Mem[0x000039e0]	0x00000000	0x00000000	0x00000000	0x00000000	
Mem[0x000039f0]	0x00000000	0x00000000	0x00000000	0x00000000	
Mem[0x00003a00]	0x00000000	0x00000000	0x00000000	0x00000000	
Mem[0x00003a10]	0x00000000	0x00000000	0x00000000	0x00000000	
Mem[0x00003a20]	0x00000000	0x00000000	0x00000000	0x00000000	
Mem[0x00003a30]	0x00000000	0x00000000	0x00000000	0x00000000	
Mem[0x00003a40]	0x00000000	0x00000000	0x00000000	0x00000000	
Mem[0x00003a50]	0x00000000	0x00000000	0x00000000	0x00000000	
Mem[0x00003a60]	0x00000000	0x00000000	0x00000000	0x00000000	
Mem[0x00003a70]	0x00000000	0x00000000	0x00000000	0x00000000	
Mem[0x00003a80]	0x00000000	0x00000000	0x00000000	0x00000000	
Mem[0x00003a90]	0x00000000	0x00000000	0x00000000	0x00000000	
Mem[0x00003aa0]	0x00000000	0x00000000	0x00000000	0x00000000	
Mem[0x00003ab0]	0x00000000	0x00000000	0x00000000	0x00000000	
Mem[0x00003ac0]	0x00000000	0x00000000	0x00000000	0x00000000	
Mem[0x00003ad0]	0x00000000	0x00000000	0x00000000	0x00000000	
Mem[0x00003ae0]	0x00000000	0x00000000	0x00000000	0x00000000	
Mem[0x00003af0]	0x00000000	0x00000000	0x00000000	0x00000000	
Mem[0x00003b00]	0x00000000	0x00000000	0x00000000	0x00000000	
Mem[0x00003b10]	0x00000000	0x00000000	0x00000000	0x00000000	
Mem[0x00003b20]	0x00000000	0x00000000	0x00000000	0x00000000	
Mem[0x00003b30]	0x00000000	0x00000000	0x00000000	0x00000000	
Mem[0x00003b40]	0x00000000	0x00000000	0x00000000	0x00000000	
Mem[0x00003b50]	0x00000000	0x00000000	0x00000000	0x00000000	
Mem[0x00003b60]	0x00000000	0x00000000	0x00000000	0x00000000	
Mem[0x00003b70]	0x00000000	0x00000000	0x00000000	0x00000000	
Mem[0x00003b80]	0x00000000	0x00000000	0x00000000	0x00000000	
Mem[0x00003b90]	0x00000000	0x00000000	0x00000000	0x00000000	
Mem[0x00003ba0]	0x00000000	0x00000000	0x00000000	0x00000000	
Mem[0x00003bb0]	0x00000000	0x00000000	0x00000000	0x00000000	
Mem[0x00003bc0]	0x00000000	0x00000000	0x00000000	0x00000000	
Mem[0x00003bd0]	0x00000000	0x00000000	0x00000000	0x00000000	
Mem[0x00003be0]	0x00000000	0x00000000	0x00000000	0x00000000	
Mem[0x00003bf0]	0x00000000	0x00000000	0x00000000	0x00000000	
Mem[0x00003c00]	0x00000000	0x00000000	0x00000000	0x00000000	
Mem[0x00003c10]	0x00000000	0x00000000	0x00000000	0x00000000	
Mem[0x00003c20]	0x00000000	0x00000000	0x00000000	0x00000000	
Mem[0x00003c30]	0x00000000	0x00000000	0x00000000	0x00000000	
Mem[0x00003c40]	0x00000000	0x00000000	0x00000000	0x00000000	
Mem[0x00003c50]	0x00000000	0x00000000	0x00000000	0x00000000	
Mem[0x00003c60]	0x00000000	0x00000000	0x00000000	0x00000000	
Mem[0x00003c70]	0x00000000	0x00000000	0x00000000	0x00000000	
Mem[0x00003c80]	0x00000000	0x00000000	0x00000000	0x00000000	
Mem[0x00003c90]	0x00000000	0x00000000	0x00000000	0x00000000	
Mem[0x00003ca0]	0x00000000	0x00000000	0x00000000	0x00000000	
Mem[0x00003cb0]	0x00000000	0x00000000	0x00000000	0x00000000	
Mem[0x00003cc0]	0x00000000	0x00000000	0x00000000	0x00000000	
Mem[0x00003cd0]	0x00000000	0x00000000	0x00000000	0x00000000	
Mem[0x00003ce0]	0x00000000	0x00000000	0x00000000	0x00000000	
Mem[0x00003cf0]	0x00000000	0x00000000	0x00000000	0x00000000	
Mem[0x00003d00]	0x00000000	0x00000000	0x00000000	0x00000000	
Mem[0x00003d10]	0x00000000	0x00000000	0x00000000	0x00000000	
Mem[0x00003d20]	0x00000000	0x00000000	0x00000000	0x00000000	
Mem[0x00003d30]	0x00000000	0x00000000	0x00000000	0x00000000	
Mem[0x00003d40]	0x00000000	0x00000000	0x00000000	0x00000000	
Mem[0x00003d50]	0x00000000	0x00000000	0x00000000	0x00000000	
Mem[0x00003d60]	0x00000000	0x00000000	0x00000000	0x00000000	
Mem[0x00003d70]	0x00000000	0x00000000	0x00000000	0x00000000	
Mem[0x00003d80]	0x00000000	0x00000000	0x00000000	0x00000000	
Mem[0x00003d90]	0x00000000	0x00000000	0x00000000	0x00000000	
Mem[0x00003da0]	0x00000000	0x00000000	0x00000000	0x00000000	
Mem[0x00003db0]	0x00000000	0x00000000	0x00000000	0x00000000	
Mem[0x00003dc0]	0x00000000	0x00000000	0x00000000	0x00000000	
Mem[0x00003dd0]	0x00000000	0x00000000	0x00000000	0x00000000	
Mem[0x00003de0]	0x00000000	0x00000000	0x00000000	0x00000000	
Mem[0x00003df0]	0x00000000	0x00000000	0x00000000	0x00000000	
Mem[0x00003e00]	0x00000000	0x00000000	0x00000000	0x00000000	
Mem[0x00003e10]	0x00000000	0x00000000	0x00000000	0x00000000	
Mem[0x00003e20]	0x00000000	0x00000000	0x00000000	0x00000000	
Mem[0x00003e30]	0x00000000	0x00000000	0x00000000	0x00000000	
Mem[0x00003e40]	0x00000000	0x00000000	0x00000000	0x00000000	
Mem[0x00003e50]	0x00000000	0x00000000	0x00000000	0x00000000	
Mem[0x00003e60]	0x00000000	0x00000000	0x00000000	0x00000000	
Mem[0x00003e70]	0x00000000	0x00000000	0x00000000	0x00000000	
Mem[0x00003e80]	0x00000000	0x00000000	0x00000000	0x00000000	
Mem[0x00003e90]	0x00000000	0x00000000	0x00000000	0x00000000	
Mem[0x00003ea0]	0x00000000	0x00000000	0x00000000	0x00000000	
Mem[0x00003eb0]	0x00000000	0x00000000	0x00000000	0x00000000	
Mem[0x00003ec0]	0x00000000	0x00000000	0x00000000	0x00000000	
Mem[0x00003ed0]	0x00000000	0x00000000	0x00000000	0x00000000	
Mem[0x00003ee0]	0x00000000	0x00000000	0x00000000	0x00000000	
Mem[0x00003ef0]	0x00000000	0x00000000	0x00000000	0x00000000	
Mem[0x00003f00]	0x00000000	0x00000000	0x00000000	0x00000000	
Mem[0x00003f10]	0x00000000	0x00000000	0x00000000	0x00000000	
Mem[0x00003f20]	0x00000000	0x00000000	0x00000000	0x00000000	
Mem[0x00003f30]	0x00000000	0x00000000	0x00000000	0x00000000	
Mem[0x00003f40]	0x00000000	0x00000000	0x00000000	0x00000000	
Mem[0x00003f50]	0x00000000	0x00000000	0x00000000	0x00000000	
Mem[0x00003f60]	0x00000000	0x00000000	0x00000000	0x00000000	
Mem[0x00003f70]	0x00000000	0x00000000	0x00000000	0x00000000	
Mem[0x00003f80]	0x00000000	0x00000000	0x00000000	0x00000000	
Mem[0x00003f90]	0x00000000	0x00000000	0x00000000	0x00000000	
Mem[0x00003fa0]	0x00000000	0x00000000	0x00000000	0x00000000	
Mem[0x00003fb0]	0x00000000	0x00000000	0x00000000	0x00000000	
Mem[0x00003fc0]	0x00000000	0x00000000	0x00000000	0x00000000	
Mem[0x00003fd0]	0x00000000	0x00000000	0x00000000	0x00000000	
Mem[0x00003fe0]	0x00000000	0x00000000	0x00000000	0x00000000	
Mem[0x00003ff0]	0x00000000	0x00000000	0x00000005	0x00000000	
